dump.vcd
$date
	Sat Jul  9 17:09:09 2022
$end

$version
	Synopsys VCS version Q-2020.03-SP1-1
$end

$timescale
	1ns
$end

$comment Csum: 1 50d01cb7194e9a3e $end


$scope module $unit $end
$upscope $end


$scope module tbench_top $end
$var reg 1 ! clk $end
$var reg 1 " rst $end

$scope begin unnamed$$_vcs_2 $end
$upscope $end


$scope begin unnamed$$_vcs_0 $end
$upscope $end


$scope begin unnamed$$_vcs_1 $end
$upscope $end


$scope begin unnamed$$_vcs_3 $end
$upscope $end


$scope module i_intf $end
$var reg 1 # clk $end
$var reg 1 $ rst $end
$var reg 32 % extInst [31:0] $end
$var reg 32 & regmem_data [31:0] $end
$var reg 32 ' datamem_data [31:0] $end
$var reg 32 ( pc_current [31:0] $end
$var reg 32 ) pc_next [31:0] $end
$var reg 32 * regf1 [31:0] $end
$var reg 32 + regf2 [31:0] $end
$upscope $end


$scope module UUT $end
$var wire 1 , clk $end
$var wire 1 - rst $end
$var wire 1 . extInst_en $end
$var wire 32 / extInst [31:0] $end
$var wire 32 0 to_memdata [31:0] $end
$var wire 32 1 to_reg_file [31:0] $end
$var wire 32 2 pc_current [31:0] $end
$var wire 32 3 pc_next [31:0] $end
$var wire 32 4 regf1 [31:0] $end
$var wire 32 5 regf2 [31:0] $end
$var wire 32 6 PC_w [31:0] $end
$var wire 32 7 Inst_w [31:0] $end
$var wire 32 8 Reg1_w [31:0] $end
$var wire 32 9 Reg2_w [31:0] $end
$var wire 32 : SignE_w [31:0] $end
$var wire 32 ; Mux2_w [31:0] $end
$var wire 32 < ALUR_w [31:0] $end
$var wire 32 = DataM_w [31:0] $end
$var wire 32 > Mux3_w [31:0] $end
$var wire 32 ? Adder1_w [31:0] $end
$var wire 32 @ Adder2_w [31:0] $end
$var wire 32 A Mux4_w [31:0] $end
$var wire 32 B Mux5_w [31:0] $end
$var wire 32 C MemInst_w [31:0] $end
$var wire 5 D Mux1_w [4:0] $end
$var wire 4 E ALU_Ctl_w [3:0] $end
$var wire 2 F ALUOp_w [1:0] $end
$var wire 1 G RegDst_w $end
$var wire 1 H RegWrite_w $end
$var wire 1 I ALUSrc_w $end
$var wire 1 J MemtoReg_w $end
$var wire 1 K MemWrite_w $end
$var wire 1 L BEQ_w $end
$var wire 1 M BNE_w $end
$var wire 1 N Jump_w $end
$var wire 1 O zero_w $end
$var wire 1 P sel_mux4_w $end

$scope module MIPS_PC $end
$var wire 1 , clk $end
$var wire 1 - rst $end
$var wire 32 B pc_in [31:0] $end
$var reg 32 6 pc_out [31:0] $end
$upscope $end


$scope module MIPS_inst_mem $end
$var wire 32 6 address [31:0] $end
$var wire 32 C inst [31:0] $end
$upscope $end


$scope module MIPS_register_file $end
$var wire 1 , clk $end
$var wire 1 - rst $end
$var wire 1 H regWrite $end
$var wire 5 Q readReg1 [4:0] $end
$var wire 5 R readReg2 [4:0] $end
$var wire 5 D writeReg [4:0] $end
$var wire 32 > writeData [31:0] $end
$var wire 32 8 readData1 [31:0] $end
$var wire 32 9 readData2 [31:0] $end

$scope begin unnamed$$_0 $end
$upscope $end

$upscope $end


$scope module MIPS_ALU $end
$var wire 4 E ALU_Ctl [3:0] $end
$var wire 32 8 A [31:0] $end
$var wire 32 ; B [31:0] $end
$var reg 32 < ALUOut [31:0] $end
$var wire 1 O Zero $end
$upscope $end


$scope module MIPS_ALUControl $end
$var wire 2 F ALUOp [1:0] $end
$var wire 6 S func_code [5:0] $end
$var reg 4 E ALU_Ctl [3:0] $end
$upscope $end


$scope module MIPS_data_memory $end
$var wire 1 , clk $end
$var wire 1 - rst $end
$var wire 32 < address [31:0] $end
$var wire 1 K memWrite $end
$var wire 32 9 writeData [31:0] $end
$var wire 32 = readData [31:0] $end

$scope begin unnamed$$_0 $end
$upscope $end

$upscope $end


$scope module MIPS_SignExt $end
$var wire 16 T data_in [15:0] $end
$var wire 32 : data_out [31:0] $end
$upscope $end


$scope module MIPS_control_unit $end
$var wire 6 U Opcode [5:0] $end
$var reg 1 G RegDst $end
$var reg 1 H RegWrite $end
$var reg 1 I ALUSrc $end
$var reg 1 J MemtoReg $end
$var reg 1 K MemWrite $end
$var reg 1 L BEQ $end
$var reg 1 M BNE $end
$var reg 1 N Jump $end
$var reg 2 F ALUOp [1:0] $end
$upscope $end


$scope module MIPS_Adder1 $end
$var wire 32 6 SrcA [31:0] $end
$var wire 32 V SrcB [31:0] $end
$var wire 32 ? Result [31:0] $end
$upscope $end


$scope module MIPS_Adder2 $end
$var wire 32 ? SrcA [31:0] $end
$var wire 32 : SrcB [31:0] $end
$var wire 32 @ Result [31:0] $end
$upscope $end


$scope module MIPS_branch_decoder $end
$var wire 1 L beq $end
$var wire 1 M bne $end
$var wire 1 O zero $end
$var wire 1 P ctrl $end
$upscope $end


$scope module MIPS_mux1 $end
$var wire 1 G sel $end
$var wire 5 R Data_0 [4:0] $end
$var wire 5 W Data_1 [4:0] $end
$var wire 5 D Mux_Output [4:0] $end
$upscope $end


$scope module MIPS_mux_extInst $end
$var wire 1 . sel $end
$var wire 32 C Data_0 [31:0] $end
$var wire 32 / Data_1 [31:0] $end
$var wire 32 7 Mux_Output [31:0] $end
$upscope $end


$scope module MIPS_mux2 $end
$var wire 1 I sel $end
$var wire 32 9 Data_0 [31:0] $end
$var wire 32 : Data_1 [31:0] $end
$var wire 32 ; Mux_Output [31:0] $end
$upscope $end


$scope module MIPS_mux3 $end
$var wire 1 J sel $end
$var wire 32 < Data_0 [31:0] $end
$var wire 32 = Data_1 [31:0] $end
$var wire 32 > Mux_Output [31:0] $end
$upscope $end


$scope module MIPS_mux4 $end
$var wire 1 P sel $end
$var wire 32 ? Data_0 [31:0] $end
$var wire 32 @ Data_1 [31:0] $end
$var wire 32 A Mux_Output [31:0] $end
$upscope $end


$scope module MIPS_mux5 $end
$var wire 1 N sel $end
$var wire 32 A Data_0 [31:0] $end
$var wire 32 X Data_1 [31:0] $end
$var wire 32 B Mux_Output [31:0] $end
$upscope $end

$upscope $end

$upscope $end


$scope module uvm_pkg $end
$var reg 32 Y UVM_UNBOUNDED_CONNECTIONS [31:0] $end
$var reg 1 Z uvm_start_uvm_declarations $end
$var time 64 [ setting_offset $end
$var reg 32 \ setting_verbosity [31:0] $end
$var reg 1 ] is_verdi_set_verbosity_called $end
$var reg 32 ^ uvm_global_random_seed [31:0] $end
$upscope $end

$enddefinitions $end

#0
$dumpvars
0]
1Z
bxxxxxxxxxxxxxxxxxxxxxxxxxxxxxxxxxxxxxxxxxxxxxxxxxxxxxxxxxxxxxxxx [
b11111111111111111111111111111111 Y
b00000000000000000000000000000000 \
b01000010000001111100110001000111 ^
0!
1"
bxxxxxxxxxxxxxxxxxxxxxxxxxxxxxxxx +
bxxxxxxxxxxxxxxxxxxxxxxxxxxxxxxxx *
bxxxxxxxxxxxxxxxxxxxxxxxxxxxxxxxx )
b00000000000000000000000000000000 (
bxxxxxxxxxxxxxxxxxxxxxxxxxxxxxxxx '
bxxxxxxxxxxxxxxxxxxxxxxxxxxxxxxxx &
bxxxxxxxxxxxxxxxxxxxxxxxxxxxxxxxx %
xI
xL
xM
xN
xK
xJ
xG
xH
xO
xP
bxx F
bxxxxxxxxxxxxxxxxxxxxxxxxxxxxxxxx <
bxxxx E
b00000000000000000000000000000001 ?
bxxxxxxxxxxxxxxxxxxxxxxxxxxxxxxxx =
bxxxxxxxxxxxxxxxxxxxxxxxxxxxxxxxx 7
b10001100000100010000000000000101 C
bxxxxx D
bxxxxxxxxxxxxxxxxxxxxxxxxxxxxxxxx ;
bxxxxxxxxxxxxxxxxxxxxxxxxxxxxxxxx >
bxxxxxxxxxxxxxxxxxxxxxxxxxxxxxxxx B
bxxxxxx U
bxxxxxxxxxxxxxxxxxxxxxxxxxxxxxxxx 8
bxxxxxxxxxxxxxxxxxxxxxxxxxxxxxxxx 9
bxxxxxx S
b00000000000000000000000000000000 6
bxxxxxxxxxxxxxxxxxxxxxxxxxxxxxxxx :
bxxxxxxxxxxxxxxxxxxxxxxxxxxxxxxxx @
bxxxxxxxxxxxxxxxx T
bxxxxx R
bxxxxxxxxxxxxxxxxxxxxxxxxxxxxxxxx A
bxxxxx W
bxxxxx Q
bxxxxxxxxxxxxxxxxxxxxxxxxxxxxxxxx X
b00000000000000000000000000000001 V
bxxxxxxxxxxxxxxxxxxxxxxxxxxxxxxxx /
bxxxxxxxxxxxxxxxxxxxxxxxxxxxxxxxx 1
bxxxxxxxxxxxxxxxxxxxxxxxxxxxxxxxx 0
b00000000000000000000000000000000 2
bxxxxxxxxxxxxxxxxxxxxxxxxxxxxxxxx 3
bxxxxxxxxxxxxxxxxxxxxxxxxxxxxxxxx 4
bxxxxxxxxxxxxxxxxxxxxxxxxxxxxxxxx 5
1.
0,
1-
0#
1$
$end
b000000xxxxxxxxxxxxxxxxxxxxxxxxxx X
#5
1!
1#
1,
#6
0"
0$
0-
b10101110011011010111000000011010 %
b10101110011011010111000000011010 /
b10101110011011010111000000011010 7
b00000010011011010111000000011010 X
b0111000000011010 T
b01101 R
b01110 W
b10011 Q
b00000000000000000111000000011010 :
b00000000000000000111000000011011 @
b00000000000000000xxx0000000xx0x1 A
b00000000000000000000000000001101 9
b00000000000000000000000000001101 0
b00000000000000000000000000001101 '
b00000000000000000000000000010011 8
b00000000000000000000000000010011 4
b00000000000000000000000000010011 *
b011010 S
b101011 U
b00000000000000000xxx0000000x1xxx ;
b00000000000000000xxx0000000x1xxx 5
b00000000000000000xxx0000000x1xxx +
b000000x00xx0xx0x0xxx0000000xx0xx B
b000000x00xx0xx0x0xxx0000000xx0xx 3
b000000x00xx0xx0x0xxx0000000xx0xx )
b00000000000000000000000000000000 <
1O
b00000000000000000000000000000000 =
b011xx D
b1111 E
b00 F
0M
0P
b00000000000000000000000000000001 A
0L
1K
0H
0J
1I
0G
0N
b00000000000000000000000000000000 >
b00000000000000000000000000000000 1
b00000000000000000000000000000000 &
b0010 E
b00000000000000000000000000000001 B
b00000000000000000000000000000001 3
b00000000000000000000000000000001 )
b00000000000000000111000000011010 ;
b00000000000000000111000000011010 5
b00000000000000000111000000011010 +
b01101 D
b00000000000000000111000000101101 <
0O
b00000000000000000000000000101101 =
b00000000000000000111000000101101 >
b00000000000000000111000000101101 1
b00000000000000000111000000101101 &
#10
0!
0#
0,
#15
1!
1#
1,
b00000000000000000000000000001101 =
b00000000000000000000000000000001 6
b00000000000000000000000000000010 ?
b00000000000000000111000000011100 @
b00000000000000000000000000000010 A
b00000000000000000000000000000001 2
b00000000000000000000000000000001 (
b10001100000110000000000000000110 C
b00000000000000000000000000000010 B
b00000000000000000000000000000010 3
b00000000000000000000000000000010 )
#16
b10101110111010000000100111000000 %
b10101110111010000000100111000000 /
b10101110111010000000100111000000 7
b00000010111010000000100111000000 X
b0000100111000000 T
b01000 R
b00001 W
b10111 Q
b00000000000000000000100111000000 :
b00000000000000000000100111000010 @
b00000000000000000000000000001000 9
b00000000000000000000000000001000 0
b00000000000000000000000000001000 '
b00000000000000000000000000010111 8
b00000000000000000000000000010111 4
b00000000000000000000000000010111 *
b000000 S
b00000000000000000000100111000000 ;
b00000000000000000000100111000000 5
b00000000000000000000100111000000 +
b00000000000000000000100111010111 <
b00000000000000000000000011010111 =
b01000 D
b00000000000000000000100111010111 >
b00000000000000000000100111010111 1
b00000000000000000000100111010111 &
#20
0!
0#
0,
#25
1!
1#
1,
b00000000000000000000000000001000 =
b00000000000000000000000000000010 6
b00000000000000000000000000000011 ?
b00000000000000000000100111000011 @
b00000000000000000000000000000011 A
b00000000000000000000000000000010 2
b00000000000000000000000000000010 (
b10001100000011010000000000000111 C
b00000000000000000000000000000011 B
b00000000000000000000000000000011 3
b00000000000000000000000000000011 )
#26
b10001110000001000011111100001100 %
b10001110000001000011111100001100 /
b10001110000001000011111100001100 7
b00000010000001000011111100001100 X
b0011111100001100 T
b00100 R
b00111 W
b10000 Q
b00000000000000000011111100001100 :
b00000000000000000011111100001111 @
b00000000000000000000000000000100 9
b00000000000000000000000000000100 0
b00000000000000000000000000000100 '
b00000000000000000000000000010000 8
b00000000000000000000000000010000 4
b00000000000000000000000000010000 *
b001100 S
b100011 U
b00000000000000000011111100001100 ;
b00000000000000000011111100001100 5
b00000000000000000011111100001100 +
b00000000000000000011111100011100 <
b00000000000000000000000000011100 =
b00100 D
0K
1H
1J
b00000000000000000000000000011100 >
b00000000000000000000000000011100 1
b00000000000000000000000000011100 &
#30
0!
0#
0,
#35
1!
1#
1,
b00000000000000000000000000011100 9
b00000000000000000000000000011100 0
b00000000000000000000000000011100 '
b00000000000000000000000000000011 6
b00000000000000000000000000000100 ?
b00000000000000000011111100010000 @
b00000000000000000000000000000100 A
b00000000000000000000000000000011 2
b00000000000000000000000000000011 (
b10001100000100000000000000001000 C
b00000000000000000000000000000100 B
b00000000000000000000000000000100 3
b00000000000000000000000000000100 )
#36
b00010000010001100110010111101010 %
b00010000010001100110010111101010 /
b00010000010001100110010111101010 7
b00000000010001100110010111101010 X
b0110010111101010 T
b00110 R
b01100 W
b00010 Q
b00000000000000000110010111101010 :
b00000000000000000110010111101110 @
b00000000000000000000000000000110 9
b00000000000000000000000000000110 0
b00000000000000000000000000000110 '
b00000000000000000000000000000010 8
b00000000000000000000000000000010 4
b00000000000000000000000000000010 *
b101010 S
b000100 U
b00000000000000000110010111101010 ;
b00000000000000000110010111101010 5
b00000000000000000110010111101010 +
b00000000000000000110010111101100 <
b00000000000000000000000011101100 =
b00110 D
b01 F
1L
0H
0J
0I
b00000000000000000110010111101100 >
b00000000000000000110010111101100 1
b00000000000000000110010111101100 &
b0110 E
b00000000000000000000000000000110 ;
b00000000000000000000000000000110 5
b00000000000000000000000000000110 +
b11111111111111111111111111111100 <
b00000000000000000000000011111100 =
b11111111111111111111111111111100 >
b11111111111111111111111111111100 1
b11111111111111111111111111111100 &
#40
0!
0#
0,
#45
1!
1#
1,
b00000000000000000000000000000100 6
b00000000000000000000000000000101 ?
b00000000000000000110010111101111 @
b00000000000000000000000000000101 A
b00000000000000000000000000000100 2
b00000000000000000000000000000100 (
b00010011000100010000000000001111 C
b00000000000000000000000000000101 B
b00000000000000000000000000000101 3
b00000000000000000000000000000101 )
#46
b00010001000101010111000000011011 %
b00010001000101010111000000011011 /
b00010001000101010111000000011011 7
b00000001000101010111000000011011 X
b0111000000011011 T
b10101 R
b01110 W
b01000 Q
b00000000000000000111000000011011 :
b00000000000000000111000000100000 @
b00000000000000000000000000010101 9
b00000000000000000000000000010101 0
b00000000000000000000000000010101 '
b00000000000000000000000000001000 8
b00000000000000000000000000001000 4
b00000000000000000000000000001000 *
b011011 S
b00000000000000000000000000010101 ;
b00000000000000000000000000010101 5
b00000000000000000000000000010101 +
b11111111111111111111111111110011 <
b00000000000000000000000011110011 =
b10101 D
b11111111111111111111111111110011 >
b11111111111111111111111111110011 1
b11111111111111111111111111110011 &
#50
0!
0#
0,
#55
1!
1#
1,
b00000000000000000000000000000101 6
b00000000000000000000000000000110 ?
b00000000000000000111000000100001 @
b00000000000000000000000000000110 A
b00000000000000000000000000000101 2
b00000000000000000000000000000101 (
b00000011000011011100100000100000 C
b00000000000000000000000000000110 B
b00000000000000000000000000000110 3
b00000000000000000000000000000110 )
#56
b00010100111101000001001001110000 %
b00010100111101000001001001110000 /
b00010100111101000001001001110000 7
b00000000111101000001001001110000 X
b0001001001110000 T
b10100 R
b00010 W
b00111 Q
b00000000000000000001001001110000 :
b00000000000000000001001001110110 @
b00000000000000000000000000010100 9
b00000000000000000000000000010100 0
b00000000000000000000000000010100 '
b00000000000000000000000000000111 8
b00000000000000000000000000000111 4
b00000000000000000000000000000111 *
b110000 S
b000101 U
b00000000000000000000000000010100 ;
b00000000000000000000000000010100 5
b00000000000000000000000000010100 +
b10100 D
1M
1P
b00000000000000000001001001110110 A
0L
b00000000000000000001001001110110 B
b00000000000000000001001001110110 3
b00000000000000000001001001110110 )
#60
0!
0#
0,
#65
1!
1#
1,
b00000000000000000001001001110110 6
b00000000000000000001001001110111 ?
b00000000000000000010010011100111 @
b00000000000000000010010011100111 A
b00000000000000000001001001110110 2
b00000000000000000001001001110110 (
bxxxxxxxxxxxxxxxxxxxxxxxxxxxxxxxx C
b00000000000000000010010011100111 B
b00000000000000000010010011100111 3
b00000000000000000010010011100111 )
#66
b00001001000111001001010110000101 %
b00001001000111001001010110000101 /
b00001001000111001001010110000101 7
b00000001000111001001010110000101 X
b1001010110000101 T
b11100 R
b10010 W
b01000 Q
b11111111111111111001010110000101 :
b11111111111111111010011111111100 @
b11111111111111111010011111111100 A
b00000000000000000000000000011100 9
b00000000000000000000000000011100 0
b00000000000000000000000000011100 '
b00000000000000000000000000001000 8
b00000000000000000000000000001000 4
b00000000000000000000000000001000 *
b000101 S
b000010 U
b00000000000000000000000000011100 ;
b00000000000000000000000000011100 5
b00000000000000000000000000011100 +
b11111111111111111010011111111100 B
b11111111111111111010011111111100 3
b11111111111111111010011111111100 )
b11111111111111111111111111101100 <
b00000000000000000000000011101100 =
b11100 D
b00 F
0M
0P
b00000000000000000001001001110111 A
1N
b11111111111111111111111111101100 >
b11111111111111111111111111101100 1
b11111111111111111111111111101100 &
b0010 E
b00000001000111001001010110000101 B
b00000001000111001001010110000101 3
b00000001000111001001010110000101 )
b00000000000000000000000000100100 <
b00000000000000000000000000100100 =
b00000000000000000000000000100100 >
b00000000000000000000000000100100 1
b00000000000000000000000000100100 &
#70
0!
0#
0,
#75
1!
1#
1,
b00000001000111001001010110000101 6
b00000001000111001001010110000110 ?
b00000001000111000010101100001011 @
b00000001000111001001010110000110 A
b00000001000111001001010110000101 2
b00000001000111001001010110000101 (
#76
b00010110111110000110111000110011 %
b00010110111110000110111000110011 /
b00010110111110000110111000110011 7
b00000010111110000110111000110011 X
b0110111000110011 T
b11000 R
b01101 W
b10111 Q
b00000000000000000110111000110011 :
b00000001000111010000001110111001 @
b00000000000000000000000000011000 9
b00000000000000000000000000011000 0
b00000000000000000000000000011000 '
b00000000000000000000000000010111 8
b00000000000000000000000000010111 4
b00000000000000000000000000010111 *
b110011 S
b000101 U
b00000000000000000000000000011000 ;
b00000000000000000000000000011000 5
b00000000000000000000000000011000 +
b00000000000000000000000000101111 <
b00000000000000000000000000101111 =
b11000 D
b00000010111110000110111000110011 B
b00000010111110000110111000110011 3
b00000010111110000110111000110011 )
b01 F
1M
1P
b00000001000111010000001110111001 A
0N
b00000000000000000000000000101111 >
b00000000000000000000000000101111 1
b00000000000000000000000000101111 &
b0110 E
b00000001000111010000001110111001 B
b00000001000111010000001110111001 3
b00000001000111010000001110111001 )
b11111111111111111111111111111111 <
b00000000000000000000000011111111 =
b11111111111111111111111111111111 >
b11111111111111111111111111111111 1
b11111111111111111111111111111111 &
#80
0!
0#
0,
#85
1!
1#
1,
b00000001000111010000001110111001 6
b00000001000111010000001110111010 ?
b00000001000111010111000111101101 @
b00000001000111010111000111101101 A
b00000001000111010000001110111001 2
b00000001000111010000001110111001 (
b00000001000111010111000111101101 B
b00000001000111010111000111101101 3
b00000001000111010111000111101101 )
#86
b00000010010001001011100000100100 %
b00000010010001001011100000100100 /
b00000010010001001011100000100100 7
b00000010010001001011100000100100 X
b1011100000100100 T
b00100 R
b10111 W
b10010 Q
b11111111111111111011100000100100 :
b00000001000111001011101111011110 @
b00000001000111001011101111011110 A
b00000000000000000000000000011100 9
b00000000000000000000000000011100 0
b00000000000000000000000000011100 '
b00000000000000000000000000010010 8
b00000000000000000000000000010010 4
b00000000000000000000000000010010 *
b100100 S
b000000 U
b00000000000000000000000000011100 ;
b00000000000000000000000000011100 5
b00000000000000000000000000011100 +
b00000001000111001011101111011110 B
b00000001000111001011101111011110 3
b00000001000111001011101111011110 )
b11111111111111111111111111110110 <
b00000000000000000000000011110110 =
b00100 D
b10 F
0M
0P
b00000001000111010000001110111010 A
1H
1G
b11111111111111111111111111110110 >
b11111111111111111111111111110110 1
b11111111111111111111111111110110 &
b0000 E
b00000001000111010000001110111010 B
b00000001000111010000001110111010 3
b00000001000111010000001110111010 )
b10111 D
b00000000000000000000000000010000 <
b00000000000000000000000000010000 =
b00000000000000000000000000010000 >
b00000000000000000000000000010000 1
b00000000000000000000000000010000 &
#90
0!
0#
0,
#95
1!
1#
1,
b00000001000111010000001110111010 6
b00000001000111010000001110111011 ?
b00000001000111001011101111011111 @
b00000001000111010000001110111011 A
b00000001000111010000001110111010 2
b00000001000111010000001110111010 (
b00000001000111010000001110111011 B
b00000001000111010000001110111011 3
b00000001000111010000001110111011 )
#96
b00001010100000001110010000000111 %
b00001010100000001110010000000111 /
b00001010100000001110010000000111 7
b00000010100000001110010000000111 X
b1110010000000111 T
b00000 R
b11100 W
b10100 Q
b11111111111111111110010000000111 :
b00000001000111001110011111000010 @
b00000000000000000000000000000000 9
b00000000000000000000000000000000 0
b00000000000000000000000000000000 '
b00000000000000000000000000010100 8
b00000000000000000000000000010100 4
b00000000000000000000000000010100 *
b000111 S
b000010 U
b00000000000000000000000000000000 ;
b00000000000000000000000000000000 5
b00000000000000000000000000000000 +
b00000000000000000000000000000000 <
1O
b00000000000000000000000000000000 =
b11100 D
b1111 E
b00 F
0H
0G
1N
b00000000000000000000000000000000 >
b00000000000000000000000000000000 1
b00000000000000000000000000000000 &
b0010 E
b00000 D
b00000010100000001110010000000111 B
b00000010100000001110010000000111 3
b00000010100000001110010000000111 )
b00000000000000000000000000010100 <
0O
b00000000000000000000000000010100 =
b00000000000000000000000000010100 >
b00000000000000000000000000010100 1
b00000000000000000000000000010100 &
#100
0!
0#
0,
#105
1!
1#
1,
b00000010100000001110010000000111 6
b00000010100000001110010000001000 ?
b00000010100000001100100000001111 @
b00000010100000001110010000001000 A
b00000010100000001110010000000111 2
b00000010100000001110010000000111 (
